memory_initialization_radix=16;
memory_initialization_vector=
5ce5e10d,
00000000,
16028002,
00000000,
00000204,
0000FFFF,
FFFF0000,
FFFF0000,
FFFF0000,
FFFF0000,
FFFF0000,
FFFF0000,
FFFF0000,
FFFF0000,
FFFF0000,
FFFF0000;
